{
    "name": "Услуги",
    "code": "est_service",
    "main_attribute": "id",
    "attributes": [
        {
            "name": "Название",
            "code": "name",
            "type": "string",
            "nullable": false,
            "unique": false
        },
        {
            "name": "Категория",
            "code": "est_category_id",
            "type": "unsignedBigInteger",
            "unique": false,
            "nullable": false,
            "relation": {
                "table": "est_categories",
                "main_attr": "name"
            }
        },
        {
            "name": "Тип услуги",
            "code": "service_type",
            "type": "tinyInteger",
            "unique": false,
            "nullable": false
        },
        {
            "name": "Вычисляемое",
            "code": "type",
            "type": "boolean",
            "nullable": false,
            "unique": false
        },
        {
            "name": "Роль",
            "code": "est_role_id",
            "type": "unsignedBigInteger",
            "unique": false,
            "nullable": true,
            "relation": {
                "table": "est_roles",
                "main_attr": "name"
            }
        },
        {
            "name": "Сортировка",
            "code": "sort",
            "type": "tinyInteger",
            "unique": false,
            "nullable": true
        }
    ]
}
