{
    "name": "График позиции плана",
    "code": "est_plan_position_item",
    "main_attribute": "id",
    "attributes": [
        {
            "name": "Позиция плана",
            "code": "est_plan_position_id",
            "unique": false,
            "type": "unsignedBigInteger",
            "nullable": false,
            "relation": {
                "table": "est_plan_positions",
                "main_attr": "name"
            }
        },
        {
            "name": "Наименование",
            "code": "name",
            "unique": false,
            "type": "string",
            "nullable": true
        },
        {
            "name": "Дата с",
            "code": "date_from",
            "type": "timestamp",
            "unique": false,
            "nullable": false

        },
        {
            "name": "Дата по",
            "code": "date_to",
            "type": "timestamp",
            "unique": false,
            "nullable": false
        },
        {
            "name": "Выполнено",
            "code": "completed",
            "type": "boolean",
            "nullable": false
        },
        {
            "name": "Кем создано",
            "code": "created_by_id",
            "type": "unsignedBigInteger",
            "nullable": false,
            "relation": {
                "table": "users",
                "main_attr": "name"
            }
        },
        {
            "name": "Кем изменено",
            "code": "updated_by_id",
            "type": "unsignedBigInteger",
            "nullable": true,
            "relation": {
                "table": "users",
                "main_attr": "name"
            }
        }
    ]
}
