{
    "name": "Типы мероприятий",
    "code": "event_type",
    "main_attribute": "name",
    "attributes": [
        {
            "name": "Название",
            "code": "name",
            "type": "string",
            "nullable": false,
            "unique": true
        }
    ]
}
